{"SignUpData":[
  {
    "email_create":"testu2i@gmail.com",
    "customer_firstname":"Test",
    "customer_lastname":"Ui",
    "passwd":"kkblond12",
    "firstname":"Test",
    "lastname":"Ui",
    "company":"Test Ui",
    "address1":"pandu,adabari -56",
    "city":"guwahati",
    "postcode":"55555",
    "phone_mobile":"1234512345",
    "alias":"Office"
  }
],

  "SignInData":[
    {
      "email":"testu2i@gmail.com",
      "passwd":"kkblond12"
    }
  ]
}